…
## Check for completeness and correctness across datasets

``` r
anti_join(bakers, bakes)
```

    ## Joining with `by = join_by(baker, series)`

    ## # A tibble: 26 × 6
    ##    baker  last_name       series baker_age baker_occupation             hometown
    ##    <chr>  <chr>            <dbl>     <dbl> <chr>                        <chr>   
    ##  1 Alice  Fevronia            10        28 Geography teacher            Essex   
    ##  2 Amelia LeBruin             10        24 Fashion designer             Halifax 
    ##  3 Antony Amourdoux            9        30 Banker                       London  
    ##  4 Briony Williams             9        33 Full-time parent             Bristol 
    ##  5 Dan    Beasley-Harling      9        36 Full-time parent             London  
    ##  6 Dan    Chambers            10        32 Support worker               Rotherh…
    ##  7 David  Atherton            10        36 International health adviser Whitby  
    ##  8 Helena Garcia              10        40 Online project manager       Leeds   
    ##  9 Henry  Bird                10        20 Student                      Durham  
    ## 10 Imelda McCarron             9        33 Countryside recreation offi… County …
    ## # ℹ 16 more rows
…
## Create table for Star Baker or Winner

``` r
star_bakers <- gbb_combined |>
  filter(series >= 5 & series <= 10, result %in% c("STAR BAKER", "WINNER")) |>
  select(series, episode, baker, result)
star_bakers
```

    ## # A tibble: 60 × 4
    ##    series episode baker   result    
    ##     <dbl>   <dbl> <chr>   <chr>     
    ##  1      5       6 Chetna  STAR BAKER
    ##  2      5       5 Kate    STAR BAKER
    ##  3      5       3 Luis    STAR BAKER
    ##  4      5       1 Nancy   STAR BAKER
    ##  5      5      10 Nancy   WINNER    
    ##  6      5       2 Richard STAR BAKER
    ##  7      5       4 Richard STAR BAKER
    ##  8      5       7 Richard STAR BAKER
    ##  9      5       8 Richard STAR BAKER
    ## 10      5       9 Richard STAR BAKER
    ## # ℹ 50 more rows
…
